<?xml version="1.0" encoding="UTF-8"?>
<svg version="1.1" viewBox="0 0 2048 1024" xmlns="http://www.w3.org/2000/svg">
    <g fill-rule="evenodd">
        <path transform="matrix(1.0061 0 0 1.0061 -85.452 -49.153)" d="m1060 564c0 55.228-22.156 229.09-184.47 333.45-17.563-1.5362-38.273 2.2698-54.947 10.937-13.985 7.269-23.874 17.972-32.258 30.149-31.113 13.439-79.902 22.846-125.71 22.846-220.91 0-402.62-176.47-402.62-397.38 0-55.228 15.272-98.85 26.54-138.21 62.975-2.7171 119.37-36.035 153.12-74.519 32.177-36.695 52.117-78.491 51.716-148.89 36.748-21.202 113.4-38.594 168.62-38.376 89.008 0.35187 180.34 33.455 236.99 78.679 1.1937 39.099 12.045 68.364 30.776 94.403 18.789 26.119 42.022 42.012 92.844 56.8 19.186 35.892 39.39 114.89 39.39 170.12z" fill="#e14406" />
        <path transform="matrix(.51917 0 0 .51917 864.65 112.13)" d="m340 164a140 140 0 1 1 -280 0 140 140 0 1 1 280 0z" fill="#e14306" />
        <path transform="matrix(.39672 0 0 .39672 706.97 882.93)" d="m340 164a140 140 0 1 1 -280 0 140 140 0 1 1 280 0z" fill="#e14306" />
        <path transform="matrix(1.0054 0 0 1.0054 -12.345 -6.0175)" d="m340 164a140 140 0 1 1 -280 0 140 140 0 1 1 280 0z" fill="#e14306" />
        <path d="m588.21 494.25c23.491 2.7e-4 40.284-4.7655 50.38-14.297 10.289-9.5313 15.434-25.206 15.434-47.023-2.9e-4 -21.605-5.145-37.067-15.434-46.387-10.096-9.3194-26.889-13.979-50.38-13.98h-47.176v121.69h47.176m-47.176 84.514v179.51h-112.12v-474.36h171.23c57.271 4.5e-4 99.206 10.485 125.8 31.454 26.791 20.97 40.187 54.119 40.187 99.446-3.7e-4 31.349-6.9895 57.084-20.967 77.206-13.784 20.123-34.655 34.949-62.611 44.481 15.337 3.8129 29.024 12.497 41.061 26.053 12.231 13.344 24.559 33.679 36.984 61.002l60.863 134.71h-119.4l-53.001-117.87c-10.678-23.723-21.55-39.927-32.616-48.611-10.872-8.6842-25.433-13.026-43.682-13.027h-31.742" fill="#fff" />
    </g>
    <g>
        <path d="m1104.1 534.44c-16.434 2.2e-4 -29.179 7.6756-38.236 23.026-9.057 15.351-13.586 36.961-13.586 64.828-1e-4 27.75 4.5285 49.3 13.586 64.651 9.0571 15.351 21.802 23.026 38.236 23.026 16.526 0 29.319-7.6754 38.376-23.026 9.0569-15.351 13.586-36.901 13.586-64.651-2e-4 -27.868-4.5288-49.477-13.586-64.828-9.0571-15.351-21.849-23.026-38.376-23.026m0-49.418c33.614 2.1e-4 59.944 12.163 78.992 36.488 19.048 24.326 28.572 57.92 28.572 100.78-2e-4 42.747-9.5241 76.282-28.572 100.61-19.048 24.325-45.379 36.488-78.992 36.488-33.52 0-59.851-12.163-78.992-36.488-19.048-24.325-28.572-57.861-28.572-100.61 0-42.864 9.524-76.459 28.572-100.78 19.141-24.325 45.472-36.488 78.992-36.488" />
        <path d="m1336.1 592.18c8.4968 1.2e-4 14.939-2.3616 19.328-7.0851 4.3884-4.7232 6.5826-11.69 6.5828-20.901-2e-4 -9.0923-2.1944-16-6.5828-20.724-4.3886-4.8412-10.831-7.262-19.328-7.2622h-29.832v55.972h29.832m1.8207 115.66c10.831 0 18.954-2.893 24.37-8.6792 5.5089-5.7861 8.2634-14.524 8.2635-26.215-1e-4 -11.454-2.7079-20.015-8.1233-25.683-5.4158-5.7861-13.586-8.679-24.51-8.6792h-31.653v69.256h31.653m50.141-95.117c11.578 4.2512 20.541 12.104 26.891 23.558 6.349 11.454 9.5237 25.506 9.5239 42.156-2e-4 25.506-6.8163 44.518-20.448 57.035-13.633 12.517-34.361 18.775-62.186 18.775h-89.497v-264.45h80.953c29.039 3.2e-4 50.047 5.5502 63.026 16.65 13.072 11.1 19.608 28.872 19.608 53.315-1e-4 12.871-2.3811 23.853-7.1428 32.946-4.7621 8.9745-11.672 15.646-20.728 20.015" />
        <path d="m1470.8 489.8h145.52v51.544h-91.598v49.241h86.135v51.544h-86.135v60.577h94.679v51.544h-148.6v-264.45" />
        <path d="m1743.5 607.06c11.298 2.1e-4 19.374-2.6567 24.23-7.9707 4.9485-5.3136 7.4228-14.052 7.4229-26.215-1e-4 -12.044-2.4744-20.664-7.4229-25.86-4.8556-5.1955-12.932-7.7934-24.23-7.7936h-22.689v67.839h22.689m-22.689 47.116v100.08h-53.922v-264.45h82.354c27.545 3.2e-4 47.713 5.8454 60.505 17.536 12.885 11.691 19.328 30.171 19.328 55.44-2e-4 17.477-3.3616 31.824-10.084 43.042-6.6295 11.218-16.667 19.484-30.112 24.798 7.3762 2.1256 13.959 6.9671 19.748 14.524 5.8821 7.4394 11.811 18.775 17.787 34.008l29.272 75.102h-57.424l-25.491-65.714c-5.1355-13.225-10.364-22.259-15.686-27.1-5.2291-4.8413-12.232-7.2621-21.009-7.2622h-15.266" />
        <path d="m1849.8 489.8h192.72v51.544h-69.328v212.91h-53.922v-212.91h-69.469v-51.544" />
    </g>
</svg>
